<svg xmlns="http://www.w3.org/2000/svg" width="536.984" height="305" viewBox="0 0 536.984 305">
  <path id="Union_1" data-name="Union 1" d="M13782.447-1108.4h-.145q-.759,0-1.517-.007c-33.271-.268-67.686-8.034-102.318-23.1-28.358-12.335-56.871-29.529-84.747-51.11-47.942-37.121-78.117-74.891-79.108-77.55-.137-.374.063-.666.35-1.075,3.73-5.388,34.766-42.851,82.307-79.031,27.674-21.062,55.846-37.812,83.731-49.791,33.845-14.536,67.369-22.043,99.674-22.327.542-.006,1.086-.009,1.629-.009h.268c52.507,0,107.1,18.6,162.266,55.278a497.43,497.43,0,0,1,95.032,82.994c1.82,2.077,10.872,12.511,10.7,13.816-.332,2.475-31.345,40.806-78.734,77.465-27.96,21.63-56.559,38.874-85,51.254-35.357,15.389-70.434,23.192-104.258,23.192Zm-.039-1.333c83.023-.058,150.555-67.623,150.555-150.667s-67.529-150.609-150.553-150.667c-.526,0-1.06,0-1.585.007-82.4.794-149.183,68.076-149.183,150.66,0,82.623,66.844,149.924,149.292,150.661C13781.423-1109.738,13781.919-1109.736,13782.408-1109.735Zm107.368-258.148a151.016,151.016,0,0,1,44.52,107.481,151.016,151.016,0,0,1-44.52,107.481,151.027,151.027,0,0,1-72.335,40.46c61.844-9.557,116.013-42.5,152.8-70.846,46.928-36.151,77.243-73.614,78.953-77.1-1.8-3.586-31.7-40.457-79.179-77.017-36.774-28.313-90.808-61.208-152.309-70.853A151.026,151.026,0,0,1,13889.776-1367.883Zm-294.578,30.873c-46.86,36.218-76.791,73.015-79.207,76.612,2.261,3.554,31.134,40.044,78.71,76.852,36.483,28.22,90.1,60.982,151.481,70.852a151.048,151.048,0,0,1-71.357-40.226,151.015,151.015,0,0,1-44.519-107.481,151.015,151.015,0,0,1,44.519-107.481,151.054,151.054,0,0,1,70.616-40.044C13684.911-1397.819,13631.624-1365.162,13595.2-1337.011Zm144.437,76.608a42.987,42.987,0,0,1,42.936-42.939,42.987,42.987,0,0,1,42.939,42.939,42.987,42.987,0,0,1-42.939,42.939A42.987,42.987,0,0,1,13739.635-1260.4Zm1.333,0a41.652,41.652,0,0,0,41.6,41.606,41.653,41.653,0,0,0,41.606-41.606,41.65,41.65,0,0,0-41.606-41.6A41.649,41.649,0,0,0,13740.968-1260.4Z" transform="translate(-13514.083 1412.902)" fill="#fee600" stroke="rgba(0,0,0,0)" stroke-width="1"/>
</svg>
