<svg xmlns="http://www.w3.org/2000/svg" width="663" height="441.534" viewBox="0 0 663 441.534">
  <g id="Group_35" data-name="Group 35" transform="translate(-305.166 -1082.729)">
    <path id="Path_256" data-name="Path 256" d="M678.416,1090.989" transform="translate(-55.9 -1.233)" fill="none"/>
    <path id="Path_257" data-name="Path 257" d="M685.617,1082.729c2.954,2.955.117,7.027.117,7.027-1.207,2.053-1.206,1.94,2.579,4.994" transform="translate(-56.893)" fill="none"/>
    <g id="Group_33" data-name="Group 33" transform="translate(306.166 1157.58)">
      <path id="Path_258" data-name="Path 258" d="M435.24,1486.531c18.262-18.546,21.755-38.152,43.22-52.873,10.193-6.991,25.172-16.008,33.759-24.9,5.118-5.3,11.53-13.2,16.285-18.821,14.536-17.2,39.936-21.992,58.587-38.837,4.2-3.792,10.519-11.912,9.5-17.475-.766-4.161-4.218-7.26-7.692-9.673a15.655,15.655,0,0,0-6.609-2.71c-4.4-.657-10.664,1.652-12.63,2.721-8.117,4.41-9.884,8.25-18,12.66-5.394,2.931-10.794,5.865-15.968,9.169-3.844,2.455-7.6,5.132-11.825,6.842-13.068,5.284-29.65-.7-36.327-13.115-3.491-6.489-4.38-14.1-4.062-21.458.907-20.99,10.908-40.37,20.688-58.964,3.15-5.991,6.338-12.036,10.733-17.183,7.6-8.9,18.841-15.259,22.836-26.259,1.766-4.864,2.732-9.739.883-14.637a15.526,15.526,0,0,0-10.522-9.477c-8.975-2.36-17.949,3.563-25,9.635-19.119,16.464-35.041,36.349-49.146,57.268a66.764,66.764,0,0,0-6.981,12.26c-3.612,9.01-3.429,19.01-4.034,28.7-.328,5.265-.965,10.729-5.108,14.714a8.73,8.73,0,0,1-6.248,2.4,3.094,3.094,0,0,1-1.361-.281c-1.273-.659-1.378-2.41-1.286-3.841.705-10.985.235-14.1-4.393-28.533-1.062-3.31-2.767-6.476-2.385-9.931a42.47,42.47,0,0,1,2.321-8.989c2.777-5.9,1.728-12.813,2.677-19.266,1.4-9.529,9.485-15.388,13.538-24.125,4.823-10.391,6.837-16.556,6.93-28.012.048-5.95-1.182-18.367-7.331-20.841-8.87-3.57-18.779,2.2-22.186,5.529-10.622,10.386-17.842,12.5-27.815,23.541-9.82,10.875-17.763,23.74-21.206,37.981-1.906,7.877-2.443,16.153-5.629,23.6a4.478,4.478,0,0,1-1.892,2.453,5.458,5.458,0,0,1-2.845.193c-11.548-.973-21.1,8.672-27.651,18.23a152.131,152.131,0,0,0-22.723,51.79,68.869,68.869,0,0,0-1.166,7.2,10.876,10.876,0,0,1-.674,2.918,6.923,6.923,0,0,0-.328,2.555c.073,10.187,4.852,9.462,7.348,14.788,2.6,5.536,6.422,10,10.385,14.641a13.356,13.356,0,0,0,6.505,4.176c15.04,4.271,18.037,5.229,31.212,6.816a28.246,28.246,0,0,1,6.617,2.059,6.11,6.11,0,0,1,2.754,3.7c1.753,5.922-3.331,12.061-9.206,13.964s-12.235.833-18.379.2-12.834-.674-17.895,2.866a44.553,44.553,0,0,0-6.4,6.932c-5.863,8.734-7.137,16.653-6.362,27.144s6.672,20.881,16.162,25.423c7.569,3.622,15.767.9,23.751.806,9.621-.116,19.384.232,28.639,3.116,5.171,1.611,10.095,3.985,15.337,5.343,6.736,1.746,13.8,1.769,20.633,3.063s6.837,1.293,14.924,4.914c1.192.534,8.307,4.911,9.321,5.733,1.732,1.4,4.248,3.342,5.826,4.919,6.907,6.908,4.857,4.827,8.243,9.873" transform="translate(-306.166 -1171.569)" fill="none" stroke="#fff" stroke-miterlimit="10" stroke-width="2"/>
      <path id="Path_259" data-name="Path 259" d="M383.965,1339.837c-1.648,1.339-3.661,2.213-5.162,3.715s-2.347,4.037-1.074,5.735a7.891,7.891,0,0,0,2.072,1.641c6.536,4.379,8.617,13.935,15.777,17.195a16.446,16.446,0,0,0,3.967,1.152c2.06.366,4.415.436,5.982-.949a5.588,5.588,0,0,0,1.361-5.341,23.913,23.913,0,0,0-2.237-5.311c-2.12-4.369-3.3-9.12-4.649-13.788-.859-2.984-4.269-19.025-7.647-19.132C389.017,1324.647,387.292,1337.133,383.965,1339.837Z" transform="translate(-316.757 -1194.438)" fill="none" stroke="#fff" stroke-miterlimit="10" stroke-width="2"/>
      <path id="Path_260" data-name="Path 260" d="M532.663,1467.391c.473,1.267,2.357,6.889,2.83,8.156,1.177,3.154,2.972,5.442,4.91,8.194s6.357,5.059,9.664,5.69" transform="translate(-339.98 -1215.733)" fill="none" stroke="#fff" stroke-miterlimit="10" stroke-width="2"/>
    </g>
    <g id="Group_34" data-name="Group 34" transform="translate(676.634 1160.612)">
      <path id="Path_261" data-name="Path 261" d="M903.9,1490.1c-18.261-18.546-21.755-38.152-43.219-52.873-10.193-6.991-25.172-16.008-33.76-24.9-5.117-5.3-11.53-13.194-16.284-18.82-14.536-17.2-39.936-21.992-58.588-38.836-4.2-3.792-10.519-11.913-9.495-17.476.766-4.16,4.218-7.259,7.692-9.673a15.663,15.663,0,0,1,6.609-2.709c4.4-.657,10.664,1.652,12.629,2.72,8.118,4.411,9.885,8.251,18,12.661,5.393,2.931,10.793,5.865,15.967,9.169,3.844,2.454,7.6,5.131,11.826,6.842,13.067,5.285,29.65-.7,36.327-13.115,3.49-6.49,4.38-14.1,4.062-21.458-.907-20.991-10.908-40.37-20.688-58.965-3.151-5.99-6.339-12.035-10.732-17.184-7.6-8.9-18.842-15.258-22.836-26.258-1.766-4.864-2.732-9.739-.884-14.637a15.529,15.529,0,0,1,10.522-9.477c8.974-2.36,17.948,3.563,25,9.635,19.119,16.464,35.042,36.349,49.147,57.268a66.753,66.753,0,0,1,6.98,12.26c3.613,9.011,3.43,19.009,4.034,28.7.329,5.265.965,10.729,5.108,14.714a8.732,8.732,0,0,0,6.248,2.4,3.1,3.1,0,0,0,1.361-.281c1.272-.659,1.377-2.41,1.285-3.841-.705-10.984-.235-14.1,4.393-28.533,1.062-3.31,2.768-6.476,2.386-9.931a42.41,42.41,0,0,0-2.322-8.989c-2.776-5.9-1.728-12.813-2.676-19.266-1.4-9.529-9.485-15.388-13.539-24.124-4.822-10.391-6.836-16.557-6.929-28.012-.048-5.95,1.183-18.367,7.33-20.841,8.87-3.57,18.78,2.2,22.186,5.529,10.623,10.386,17.842,12.5,27.816,23.541,9.819,10.875,17.763,23.74,21.206,37.981,1.9,7.878,2.443,16.153,5.629,23.6a4.48,4.48,0,0,0,1.891,2.454,5.463,5.463,0,0,0,2.846.193c11.548-.973,21.1,8.672,27.651,18.23a152.119,152.119,0,0,1,22.724,51.789,69.155,69.155,0,0,1,1.166,7.2,10.874,10.874,0,0,0,.674,2.918,6.921,6.921,0,0,1,.328,2.556c-.073,10.186-4.852,9.462-7.349,14.788-2.595,5.536-6.421,10-10.385,14.641a13.355,13.355,0,0,1-6.505,4.176c-15.041,4.271-18.037,5.229-31.212,6.815a28.3,28.3,0,0,0-6.618,2.06,6.107,6.107,0,0,0-2.753,3.7c-1.754,5.922,3.33,12.06,9.206,13.964s12.235.833,18.379.2,12.834-.674,17.895,2.866a44.64,44.64,0,0,1,6.4,6.931c5.863,8.735,7.137,16.654,6.362,27.145s-6.673,20.881-16.162,25.422c-7.57,3.623-15.767.9-23.752.806-9.62-.115-19.384.233-28.639,3.117-5.171,1.61-10.094,3.984-15.337,5.343-6.735,1.746-13.8,1.769-20.633,3.063s-6.836,1.293-14.924,4.914c-1.191.533-8.306,4.912-9.32,5.734-1.733,1.4-4.249,3.342-5.826,4.919-6.908,6.908-4.858,4.827-8.243,9.873" transform="translate(-742.448 -1175.133)" fill="none" stroke="#fff" stroke-miterlimit="10" stroke-width="2"/>
      <path id="Path_262" data-name="Path 262" d="M1000.911,1343.4c1.649,1.339,3.661,2.212,5.162,3.714s2.348,4.038,1.075,5.736a7.922,7.922,0,0,1-2.072,1.641c-6.536,4.379-8.617,13.936-15.777,17.194a16.474,16.474,0,0,1-3.967,1.152c-2.06.366-4.415.436-5.982-.949a5.586,5.586,0,0,1-1.361-5.341,23.927,23.927,0,0,1,2.237-5.311c2.121-4.37,3.3-9.122,4.649-13.788.859-2.983,4.269-19.025,7.648-19.133C995.86,1328.211,997.585,1340.7,1000.911,1343.4Z" transform="translate(-777.588 -1198.002)" fill="none" stroke="#fff" stroke-miterlimit="10" stroke-width="2"/>
      <path id="Path_263" data-name="Path 263" d="M854.414,1470.955c-.473,1.267-2.357,6.889-2.83,8.156-1.177,3.154-2.971,5.442-4.909,8.194s-6.358,5.059-9.664,5.69" transform="translate(-756.565 -1219.297)" fill="none" stroke="#fff" stroke-miterlimit="10" stroke-width="2"/>
    </g>
    <path id="Path_264" data-name="Path 264" d="M639.7,1564.79c13.72-20.315,19.379-45.157,20.645-69.638s-1.579-48.958-3.468-73.4q-1.163-15.03-1.843-30.09c-.348-7.679-1.145-12.125,6.433-13.415,6.318-1.075,10.091.535,13.93,1.406,13.485,3.061,15.966,3.474,31.85-.413,4.135-1.012,13.672,1.669,15.246,5.626.663,1.666.092,5.57.073,7.362-.327,30.608-.653,52.336-.979,82.944-.164,15.361-.3,30.956,3.736,45.778,4.237,15.559,12.2,35.243,19.979,47.569" transform="translate(-50.142 -44.791)" fill="none" stroke="#fee600" stroke-miterlimit="10" stroke-width="2"/>
    <path id="Path_265" data-name="Path 265" d="M689.988,1345.7c-.379-10.656-4.467-17.312-7.8-25.82-3.039-7.753-5.158-14.222-5.095-22.55.031-4.171,1.559-9.826,2.384-13.915,1-4.959,6.082-15.286,8.289-19.838,5.295-10.92,1.324-22.171,11.621-33.714,1.362,16.459,5.994,25.3,11.542,37.972,6.487,14.816,13.929,31.835,8.255,46.98-4,10.676-14.541,20.609-14.541,31.653" transform="translate(-55.724 -22.246)" fill="none" stroke="#fee600" stroke-miterlimit="10" stroke-width="2"/>
  </g>
</svg>
