<svg xmlns="http://www.w3.org/2000/svg" width="547.004" height="472.056" viewBox="0 0 547.004 472.056">
  <g id="Group_44" data-name="Group 44" transform="translate(-2659.973 -1567.739)">
    <path id="Path_288" data-name="Path 288" d="M2944.513,1730.906c-30,.821-59.6,7.1-85.61,22.346-1.794.9-3.587,5.381-7.175-.9,8.072-31.392.9-69.062-25.441-90.717" transform="translate(-17.114 -9.53)" fill="none" stroke="#fff" stroke-miterlimit="10" stroke-width="2"/>
    <path id="Path_289" data-name="Path 289" d="M2762.774,1911.971c0,5.441-.7,11.969-1.035,18.408-.395,7.6-2.075,13.72-2.575,21.044a27.325,27.325,0,0,0,7.1,20.3c11.465,12.542,36.427,33.075,69.334,6.921,2.5-1.983,5.145-14.672,6.51-21.316q.922-4.484,1.474-9.03c2.64-21.653,4.858-41.356,5.714-61.641,3.923.5-.136,3.432,0,0a11.932,11.932,0,0,1,3.577,2.661c1.794,5.381,3.587,10.763,7.175,15.247,1.794,1.794,2.691,3.588,4.485,6.278,8.072,10.763,18.835,16.144,31.392,19.732,17.041,4.485,33.186,7.175,50.227,12.557a18.763,18.763,0,0,1,5.381,3.588c11.66,13.454,22.423,27.8,38.567,37.67,7.175,3.588,12.557,9.866,19.732,14.35,17.041,12.557,27.8,28.7,43.052,43.052,4.484,3.588,9.866,6.278,15.247,8.969,22.423,9.866,48.433,1.794,65.474-16.144,16.144-17.041,25.113-42.155,17.041-64.577a57.6,57.6,0,0,0-16.144-22.423c-14.351-11.66-31.392-17.041-49.33-22.423-5.382-1.794-10.763-5.381-15.248-8.969-17.041-19.732-36.773-34.979-58.3-49.33,3.587-2.691,6.278.9,8.969,1.794,12.557,8.969,24.216,16.144,37.67,21.526,34.979,13.454,70.855,25.113,109.422,21.526,3.588-.9,6.278-1.794,9.866-1.794a45.053,45.053,0,0,0,11.66-4.484c8.072-4.484,15.247-9.866,19.732-17.938,5.382-9.866,8.072-20.629,7.175-31.392-1.794-14.35-9.866-28.7-25.113-29.6-41.258-3.588-83.412-2.691-121.979-17.041-14.351-1.794-27.8-3.588-42.155-1.794-1.794,0-4.485-.9-6.278-.9-4.485-2.691-10.763-4.484-12.557-10.763,9.866-5.381,21.526-5.381,31.392-9.866,17.938-8.969,10.763-31.392,7.175-47.536a10.835,10.835,0,0,0-6.278-6.278c-13.454-5.381-27.8-4.484-41.258,0-17.938,5.381-35.876,4.484-53.623,5.138" transform="translate(-10.32 -16.274)" fill="none" stroke="#fff" stroke-miterlimit="10" stroke-width="2"/>
    <path id="Path_290" data-name="Path 290" d="M2752.657,1902.811c1.754-14.74,3.257-19.308,4.913-28.414,4.454-24.507,13.5-48.978,32.983-64.494,1.985-1.58,4.275-3.5,3.844-6.126a4.623,4.623,0,0,0-3.159-3.466c-2.54-.9-5.159-.186-7.676.46-25.358,6.511-45.872,10.719-71.208,4.121-5.235-1.363-13.329-6.359-17.666-9.593-6.05-4.513-12.545-12.909-16.691-19.217-9.514-14.475-16.539-31.747-17-49.427-.259-9.85,1.5-20.127,3.628-29.748a75.8,75.8,0,0,1,7.433-20.08c3.24-5.852,9.315-12.016,14.5-16.245,16.107-13.142,35.3-19.309,56.057-20.481,0,0,22.973-1.8,37.056,3.322" transform="translate(0 -7.326)" fill="none" stroke="#fff" stroke-miterlimit="10" stroke-width="2"/>
    <circle id="Ellipse_11" data-name="Ellipse 11" cx="21.74" cy="21.74" r="21.74" transform="translate(2714.07 1664.443)" fill="none" stroke="#fff" stroke-miterlimit="10" stroke-width="2"/>
    <path id="Path_291" data-name="Path 291" d="M2818.236,1652.472c4.947,7.182,6.3,17.314-1.069,23.4-8.15,6.728-26.47,1.208-31.418-5.974s-7.584-17.979,1.119-23.975S2813.288,1645.288,2818.236,1652.472Z" transform="translate(-12.436 -7.69)" fill="none" stroke="#fff" stroke-miterlimit="10" stroke-width="2"/>
    <ellipse id="Ellipse_12" data-name="Ellipse 12" cx="20.005" cy="18.426" rx="20.005" ry="18.426" transform="translate(2989.249 1568.739)" fill="none" stroke="#fee600" stroke-miterlimit="10" stroke-width="2"/>
    <path id="Path_292" data-name="Path 292" d="M3023.9,1604.789c-18.287,34.906-40.37,70.3-59.535,105.011-10.16,18.4-25.412,41.391-35.448,59.859" transform="translate(-27.732 -3.717)" fill="none" stroke="#fee600" stroke-miterlimit="10" stroke-width="2"/>
    <path id="Path_293" data-name="Path 293" d="M3033.458,1609.379c-4.446,6.765-8.084,12.5-11.167,17.333-22.957,35.942-44.454,74.67-66.8,111-3.677,5.977-8.036,13.506-10.724,17.917-4.759,7.811-5.318,8.735-9.961,16.981" transform="translate(-28.343 -4.19)" fill="none" stroke="#fee600" stroke-miterlimit="10" stroke-width="2"/>
    <path id="Path_294" data-name="Path 294" d="M2738.928,1698.542q7.125-.906,14.194-2.2" transform="translate(-8.037 -13.104)" fill="none" stroke="#fff" stroke-miterlimit="10" stroke-width="2"/>
    <path id="Path_295" data-name="Path 295" d="M2745.7,1689.28a137.893,137.893,0,0,1,2.331,14.9" transform="translate(-8.736 -12.377)" fill="none" stroke="#fff" stroke-miterlimit="10" stroke-width="2"/>
    <path id="Path_296" data-name="Path 296" d="M2806.982,1654.442a42.459,42.459,0,0,1,.525,9.993" transform="translate(-15.102 -8.836)" fill="none" stroke="#fff" stroke-miterlimit="10" stroke-width="2"/>
    <path id="Path_297" data-name="Path 297" d="M2797.617,1658.966c5.14-.368,10.258.744,15.291,1.85" transform="translate(-14.135 -9.295)" fill="none" stroke="#fff" stroke-miterlimit="10" stroke-width="2"/>
    <path id="Path_298" data-name="Path 298" d="M2948.732,1788.149a84.3,84.3,0,0,1-9.857,1.41c-4.674.389-9.817.24-13.426-2.756a20.363,20.363,0,0,1-3.818-4.752l-4.367-6.715" transform="translate(-26.514 -21.213)" fill="none" stroke="#fff" stroke-miterlimit="10" stroke-width="2"/>
  </g>
</svg>
