<svg xmlns="http://www.w3.org/2000/svg" width="37.002" height="18.998" viewBox="0 0 37.002 18.998">
  <path d="M20702,19V16h37v3Zm0-8V8h37v3Zm0-8V0h23V3Z" transform="translate(-20702)" fill="#fff"/>
</svg>
